B.H. CHOE - Spring 2022, DANL 200: Introduction to Data Analytics
…
# 1.
q2b <- group_by(nyc_dogs, 
                breed_rc)
q2b <- summarise(q2b,
                 n = n())
q2b <- arrange(q2b,
               -n)  # or desc(n)
q2b

# A tibble: 327 × 2
   breed_rc                     n
   <chr>                    <int>
 1 Unknown                  54586
 2 Yorkshire Terrier        30379
 3 Labrador (or Crossbreed) 28399
 4 Shih Tzu                 27407
 5 Pit Bull (or Mix)        24393
 6 Chihuahua                21211
 7 Maltese                  15701
 8 Pomeranian                9287
 9 Havanese                  8606
10 Shih Tzu Crossbreed       8098
# … with 317 more rows
…
q2b <- mutate(q2b,
              n = n())

q2b <- arrange(q2b,
               desc(n))

q2b <- select(q2b, 
              breed_rc, n)

q2b <- distinct(q2b)
q2b

# A tibble: 327 × 2
# Groups:   breed_rc [327]
   breed_rc                     n
   <chr>                    <int>
 1 Unknown                  54586
 2 Yorkshire Terrier        30379
 3 Labrador (or Crossbreed) 28399
 4 Shih Tzu                 27407
 5 Pit Bull (or Mix)        24393
 6 Chihuahua                21211
 7 Maltese                  15701
 8 Pomeranian                9287
 9 Havanese                  8606
10 Shih Tzu Crossbreed       8098
# … with 317 more rows
…
# equivalently,
q2d <- nyc_dogs %>% 
  group_by(breed_rc, borough) %>% 
  mutate(n = n()) %>% 
  arrange(-n) %>% 
  select(breed_rc, n, borough) %>% 
  distinct()

# filter by borough
q2d_bronx <- q2d %>% filter(borough == "Bronx")
q2d_bronx

# A tibble: 253 × 3
# Groups:   breed_rc, borough [253]
   breed_rc                     n borough
   <chr>                    <int> <chr>  
 1 Unknown                   5071 Bronx  
 2 Yorkshire Terrier         4956 Bronx  
 3 Pit Bull (or Mix)         4612 Bronx  
 4 Shih Tzu                  4153 Bronx  
 5 Chihuahua                 2934 Bronx  
 6 Labrador (or Crossbreed)  1913 Bronx  
 7 Maltese                   1889 Bronx  
 8 Shih Tzu Crossbreed       1301 Bronx  
 9 Pomeranian                1031 Bronx  
10 Chihuahua Crossbreed       958 Bronx  
# … with 243 more rows

q2d_brooklyn <- q2d %>% filter(borough == "Brooklyn")
q2d_brooklyn

# A tibble: 305 × 3
# Groups:   breed_rc, borough [305]
   breed_rc                     n borough 
   <chr>                    <int> <chr>   
 1 Unknown                  14007 Brooklyn
 2 Yorkshire Terrier         7928 Brooklyn
 3 Labrador (or Crossbreed)  7660 Brooklyn
 4 Shih Tzu                  7463 Brooklyn
 5 Pit Bull (or Mix)         7305 Brooklyn
 6 Chihuahua                 5439 Brooklyn
 7 Maltese                   3550 Brooklyn
 8 Pomeranian                2440 Brooklyn
 9 Shih Tzu Crossbreed       2129 Brooklyn
10 Chihuahua Crossbreed      2108 Brooklyn
# … with 295 more rows

q2d_manhattan <- q2d %>% filter(borough == "Manhattan")
q2d_manhattan

# A tibble: 314 × 3
# Groups:   breed_rc, borough [314]
   breed_rc                     n borough  
   <chr>                    <int> <chr>    
 1 Unknown                  17421 Manhattan
 2 Labrador (or Crossbreed) 10387 Manhattan
 3 Yorkshire Terrier         7517 Manhattan
 4 Chihuahua                 7118 Manhattan
 5 Shih Tzu                  6482 Manhattan
 6 Pit Bull (or Mix)         4919 Manhattan
 7 Havanese                  4727 Manhattan
 8 Maltese                   4269 Manhattan
 9 French Bulldog            3565 Manhattan
10 Golden Retriever          3280 Manhattan
# … with 304 more rows

q2d_queens <- q2d %>% filter(borough == "Queens")
q2d_queens

# A tibble: 291 × 3
# Groups:   breed_rc, borough [291]
   breed_rc                     n borough
   <chr>                    <int> <chr>  
 1 Unknown                  11807 Queens 
 2 Yorkshire Terrier         6713 Queens 
 3 Shih Tzu                  6039 Queens 
 4 Pit Bull (or Mix)         5108 Queens 
 5 Labrador (or Crossbreed)  4974 Queens 
 6 Maltese                   4297 Queens 
 7 Chihuahua                 4183 Queens 
 8 Pomeranian                2255 Queens 
 9 German Shepherd Dog       2111 Queens 
10 Beagle                    2080 Queens 
# … with 281 more rows

q2d_staten_island <- q2d %>% filter(borough == "Staten Island")
q2d_staten_island

# A tibble: 248 × 3
# Groups:   breed_rc, borough [248]
   breed_rc                     n borough      
   <chr>                    <int> <chr>        
 1 Unknown                   5894 Staten Island
 2 Labrador (or Crossbreed)  3202 Staten Island
 3 Shih Tzu                  3058 Staten Island
 4 Yorkshire Terrier         2987 Staten Island
 5 Pit Bull (or Mix)         2289 Staten Island
 6 Maltese                   1588 Staten Island
 7 Chihuahua                 1375 Staten Island
 8 German Shepherd Dog       1127 Staten Island
 9 Beagle                     799 Staten Island
10 Golden Retriever           739 Staten Island
# … with 238 more rows
…
# equivalently
q2e <- nyc_dogs %>% 
  group_by(animal_name, animal_gender) %>% 
  mutate(n = n()) %>% 
  arrange(-n) %>% 
  select(animal_name, animal_gender, n) %>% 
  distinct()

# filter by animal_gender
q2e_F <- q2e %>% filter(animal_gender == "F")
q2e_F

# A tibble: 14,602 × 3
# Groups:   animal_name, animal_gender [14,602]
   animal_name animal_gender     n
   <chr>       <chr>         <int>
 1 Bella       F              5493
 2 Unknown     F              3884
 3 Lola        F              3478
 4 Luna        F              3204
 5 Lucy        F              2994
 6 Daisy       F              2677
 7 Coco        F              2596
 8 Princess    F              2222
 9 Chloe       F              2041
10 Molly       F              1954
# … with 14,592 more rows

q2e_M <- q2e %>% filter(animal_gender == "M")
q2e_M

# A tibble: 17,018 × 3
# Groups:   animal_name, animal_gender [17,018]
   animal_name       animal_gender     n
   <chr>             <chr>         <int>
 1 Unknown           M              5460
 2 Max               M              4860
 3 Charlie           M              3485
 4 Rocky             M              3367
 5 Name Not Provided M              3254
 6 Buddy             M              2739
 7 Teddy             M              2453
 8 Lucky             M              2323
 9 Toby              M              2140
10 Milo              M              2096
# … with 17,008 more rows
…
# filter by animal_gender
q2f_F <- q2f %>% filter(animal_gender == "F")
q2f_M <- q2f %>% filter(animal_gender == "M")

# filter `q2f_F` by borough
q2f_F_bronx <- q2f_F %>% filter(borough == "Bronx")
q2f_F_bronx

# A tibble: 3,161 × 4
# Groups:   animal_name, animal_gender, borough [3,161]
   animal_name       animal_gender borough     n
   <chr>             <chr>         <chr>   <int>
 1 Bella             F             Bronx     774
 2 Princess          F             Bronx     490
 3 Luna              F             Bronx     436
 4 Lola              F             Bronx     375
 5 Coco              F             Bronx     322
 6 Mia               F             Bronx     295
 7 Daisy             F             Bronx     248
 8 Chloe             F             Bronx     228
 9 Lady              F             Bronx     201
10 Name Not Provided F             Bronx     179
# … with 3,151 more rows

q2f_F_brooklyn <- q2f_F %>% filter(borough == "Brooklyn")
q2f_F_brooklyn

# A tibble: 6,428 × 4
# Groups:   animal_name, animal_gender, borough [6,428]
   animal_name animal_gender borough      n
   <chr>       <chr>         <chr>    <int>
 1 Unknown     F             Brooklyn  1480
 2 Bella       F             Brooklyn  1331
 3 Lola        F             Brooklyn   836
 4 Luna        F             Brooklyn   792
 5 Lucy        F             Brooklyn   733
 6 Daisy       F             Brooklyn   636
 7 Name        F             Brooklyn   635
 8 Princess    F             Brooklyn   567
 9 Chloe       F             Brooklyn   551
10 Coco        F             Brooklyn   531
# … with 6,418 more rows

q2f_F_manhattan <- q2f_F %>% filter(borough == "Manhattan")
q2f_F_manhattan

# A tibble: 7,207 × 4
# Groups:   animal_name, animal_gender, borough [7,207]
   animal_name animal_gender borough       n
   <chr>       <chr>         <chr>     <int>
 1 Unknown     F             Manhattan  1555
 2 Lucy        F             Manhattan  1358
 3 Lola        F             Manhattan  1317
 4 Bella       F             Manhattan  1262
 5 Luna        F             Manhattan  1025
 6 Daisy       F             Manhattan   884
 7 Coco        F             Manhattan   783
 8 Stella      F             Manhattan   698
 9 Penny       F             Manhattan   685
10 Sophie      F             Manhattan   678
# … with 7,197 more rows

q2f_F_queens <- q2f_F %>% filter(borough == "Queens")
q2f_F_queens

# A tibble: 4,788 × 4
# Groups:   animal_name, animal_gender, borough [4,788]
   animal_name       animal_gender borough     n
   <chr>             <chr>         <chr>   <int>
 1 Bella             F             Queens   1338
 2 Name Not Provided F             Queens    780
 3 Luna              F             Queens    678
 4 Coco              F             Queens    605
 5 Lola              F             Queens    580
 6 Daisy             F             Queens    569
 7 Princess          F             Queens    549
 8 Molly             F             Queens    465
 9 Lucy              F             Queens    455
10 Unknown           F             Queens    429
# … with 4,778 more rows

q2f_F_staten_island <- q2f_F %>% filter(borough == "Staten Island")
q2f_F_staten_island

# A tibble: 2,391 × 4
# Groups:   animal_name, animal_gender, borough [2,391]
   animal_name animal_gender borough           n
   <chr>       <chr>         <chr>         <int>
 1 Bella       F             Staten Island   742
 2 Molly       F             Staten Island   352
 3 Coco        F             Staten Island   328
 4 Daisy       F             Staten Island   328
 5 Lola        F             Staten Island   315
 6 Lucy        F             Staten Island   247
 7 Luna        F             Staten Island   238
 8 Chloe       F             Staten Island   234
 9 Mia         F             Staten Island   221
10 Unknown     F             Staten Island   207
# … with 2,381 more rows

# filter `q2f_M` by borough
q2f_M_bronx <- q2f_M %>% filter(borough == "Bronx")
q2f_M_bronx

# A tibble: 4,057 × 4
# Groups:   animal_name, animal_gender, borough [4,057]
   animal_name       animal_gender borough     n
   <chr>             <chr>         <chr>   <int>
 1 Max               M             Bronx     683
 2 Rocky             M             Bronx     495
 3 Lucky             M             Bronx     372
 4 Toby              M             Bronx     316
 5 Teddy             M             Bronx     312
 6 Prince            M             Bronx     295
 7 Name Not Provided M             Bronx     289
 8 Charlie           M             Bronx     288
 9 Buddy             M             Bronx     282
10 Milo              M             Bronx     249
# … with 4,047 more rows

q2f_M_brooklyn <- q2f_M %>% filter(borough == "Brooklyn")
q2f_M_brooklyn

# A tibble: 7,499 × 4
# Groups:   animal_name, animal_gender, borough [7,499]
   animal_name       animal_gender borough      n
   <chr>             <chr>         <chr>    <int>
 1 Unknown           M             Brooklyn  1937
 2 Max               M             Brooklyn  1179
 3 Rocky             M             Brooklyn   881
 4 Name              M             Brooklyn   859
 5 Charlie           M             Brooklyn   835
 6 Name Not Provided M             Brooklyn   668
 7 Lucky             M             Brooklyn   660
 8 Buddy             M             Brooklyn   627
 9 Teddy             M             Brooklyn   533
10 Milo              M             Brooklyn   533
# … with 7,489 more rows

q2f_M_manhattan <- q2f_M %>% filter(borough == "Manhattan")
q2f_M_manhattan

# A tibble: 8,103 × 4
# Groups:   animal_name, animal_gender, borough [8,103]
   animal_name animal_gender borough       n
   <chr>       <chr>         <chr>     <int>
 1 Unknown     M             Manhattan  1888
 2 Charlie     M             Manhattan  1290
 3 Max         M             Manhattan  1186
 4 Oliver      M             Manhattan   836
 5 Teddy       M             Manhattan   798
 6 Cooper      M             Manhattan   768
 7 Buddy       M             Manhattan   729
 8 Leo         M             Manhattan   665
 9 Rocky       M             Manhattan   650
10 Jack        M             Manhattan   629
# … with 8,093 more rows

q2f_M_queens <- q2f_M %>% filter(borough == "Queens")
q2f_M_queens

# A tibble: 6,048 × 4
# Groups:   animal_name, animal_gender, borough [6,048]
   animal_name       animal_gender borough     n
   <chr>             <chr>         <chr>   <int>
 1 Name Not Provided M             Queens   1595
 2 Max               M             Queens   1258
 3 Unknown           M             Queens   1012
 4 Rocky             M             Queens    875
 5 Charlie           M             Queens    733
 6 Buddy             M             Queens    668
 7 Lucky             M             Queens    649
 8 Toby              M             Queens    562
 9 Milo              M             Queens    541
10 Teddy             M             Queens    536
# … with 6,038 more rows

q2f_M_staten_island <- q2f_M %>% filter(borough == "Staten Island")
q2f_M_staten_island

# A tibble: 2,890 × 4
# Groups:   animal_name, animal_gender, borough [2,890]
   animal_name       animal_gender borough           n
   <chr>             <chr>         <chr>         <int>
 1 Max               M             Staten Island   523
 2 Rocky             M             Staten Island   451
 3 Buddy             M             Staten Island   421
 4 Charlie           M             Staten Island   311
 5 Unknown           M             Staten Island   262
 6 Teddy             M             Staten Island   256
 7 Name Not Provided M             Staten Island   230
 8 Bailey            M             Staten Island   205
 9 Cody              M             Staten Island   188
10 Toby              M             Staten Island   185
# … with 2,880 more rows
…
