B.H. CHOE - R Lab 1 - ggplot visualization
…
url <- 'https://bcdanl.github.io/data/bikeshare_cleaned.csv'
bikeshare <- read_csv(url)

Rows: 17376 Columns: 12
── Column specification ────────────────────────────────────────────────────────
Delimiter: ","
chr (5): month, date, wkday, seasons, weather_cond
dbl (7): cnt, year, hr, holiday, temp, hum, windspeed

ℹ Use `spec()` to retrieve the full column specification for this data.
ℹ Specify the column types or set `show_col_types = FALSE` to quiet this message.

bikeshare

# A tibble: 17,376 × 12
     cnt  year month date     hr wkday    holiday seasons weather…¹   temp   hum
   <dbl> <dbl> <chr> <chr> <dbl> <chr>      <dbl> <chr>   <chr>      <dbl> <dbl>
 1    16  2011 01    01        0 saturday       0 spring  Clear or… -1.33  0.947
 2    40  2011 01    01        1 saturday       0 spring  Clear or… -1.44  0.896
 3    32  2011 01    01        2 saturday       0 spring  Clear or… -1.44  0.896
 4    13  2011 01    01        3 saturday       0 spring  Clear or… -1.33  0.636
 5     1  2011 01    01        4 saturday       0 spring  Clear or… -1.33  0.636
 6     1  2011 01    01        5 saturday       0 spring  Mist or … -1.33  0.636
 7     2  2011 01    01        6 saturday       0 spring  Clear or… -1.44  0.896
 8     3  2011 01    01        7 saturday       0 spring  Clear or… -1.54  1.21 
 9     8  2011 01    01        8 saturday       0 spring  Clear or… -1.33  0.636
10    14  2011 01    01        9 saturday       0 spring  Clear or… -0.919 0.688
# … with 17,366 more rows, 1 more variable: windspeed <dbl>, and abbreviated
#   variable name ¹​weather_cond
…
During the morning commuting hours, people tend to rent out bikes less on Saturday and Sunday than on other week days.

Question 2

Q2a

Read the data file, NY_school_enrollment_socioecon.csv, as the data.frame object with the name, NY_school_enrollment_socioecon, using (1) the read_csv() function and (2) its URL, https://bcdanl.github.io/data/NY_school_enrollment_socioecon.csv.

url2 <- 'https://bcdanl.github.io/data/NY_school_enrollment_socioecon.csv'
NY_school_enrollment_socioecon <- read_csv(url2)
NY_school_enrollment_socioecon

We can view the data.frame NY_school_enrollment_socioecon:

# A tibble: 372 × 310
    fips  year county_name pincp pover…¹ pover…² pover…³ pover…⁴ pover…⁵ pover…⁶
   <dbl> <dbl> <chr>       <dbl>   <dbl>   <dbl>   <dbl>   <dbl>   <dbl>   <dbl>
 1 36001  2015 Albany      55120    30.9    13.9     8.2     4.6    30.3    13.2
 2 36001  2016 Albany      55126    28      14.4     8.3     4.1    28.2    13.9
 3 36001  2017 Albany      58814    28      14       8.1     3.7    26.5    13.7
 4 36001  2018 Albany      59547    26.4    12.8     8.5     3.8    23.6    12.9
 5 36001  2019 Albany      61876    27.1    11.9     7.6     4.1    23.6    12  
 6 36001  2020 Albany      66632    27.4    12.9     8.3     4.1    24.1    11.9
 7 36003  2015 Allegany    32205    26.5    14.9    10.4     3.9    23      12.9
 8 36003  2016 Allegany    32417    25.9    14.4    11.2     4      23.2    11.3
 9 36003  2017 Allegany    34001    25.8    13.9    11.4     4.1    23.9    11.1
10 36003  2018 Allegany    34553    26.9    14.3    12       4.9    24      11.2
# … with 362 more rows, 300 more variables: poverty_male_assc <dbl>,
#   poverty_male_bachelor_or_higher <dbl>, poverty_female_less_than_hs <dbl>,
#   poverty_female_hs <dbl>, poverty_female_assc <dbl>,
#   poverty_female_bachelor_or_higher <dbl>, c01_001 <dbl>, c01_002 <dbl>,
#   c01_003 <dbl>, c01_004 <dbl>, c01_005 <dbl>, c01_006 <dbl>, c01_007 <dbl>,
#   c01_008 <dbl>, c01_009 <dbl>, c01_010 <dbl>, c01_011 <dbl>, c01_012 <dbl>,
#   c01_013 <dbl>, c01_014 <dbl>, c01_015 <dbl>, c01_016 <dbl>, …
…
