DANL 310 Lecture 08
…
gapminder data

The gapminder package include the gapminder data frame.

gapminder

## # A tibble: 3,313 × 6
##    country     continent  year lifeExp      pop gdpPercap
##    <fct>       <fct>     <int>   <dbl>    <int>     <dbl>
##  1 Afghanistan Asia       1952    28.8  8425333      779.
##  2 Afghanistan Asia       1957    30.3  9240934      821.
##  3 Afghanistan Asia       1962    32.0 10267083      853.
##  4 Afghanistan Asia       1967    34.0 11537966      836.
##  5 Afghanistan Asia       1972    36.1 13079460      740.
##  6 Afghanistan Asia       1977    38.4 14880372      786.
##  7 Afghanistan Asia       1982    39.9 12881816      978.
##  8 Afghanistan Asia       1987    40.8 13867957      852.
##  9 Afghanistan Asia       1992    41.7 16317921      649.
## 10 Afghanistan Asia       1997    41.8 22227415      635.
## # … with 3,303 more rows
…
Grouped analysis and list columns

With dplyr and broom we can do the grouped analysis for every continent-year slice of the data in a compact and tidy way.

out_le <- gapminder %>%
    group_by(continent, year) %>%
    nest()
out_le

## # A tibble: 286 × 3
## # Groups:   continent, year [286]
##    continent  year data             
##    <fct>     <int> <list>           
##  1 Asia       1952 <tibble [33 × 4]>
##  2 Asia       1957 <tibble [33 × 4]>
##  3 Asia       1962 <tibble [33 × 4]>
##  4 Asia       1967 <tibble [33 × 4]>
##  5 Asia       1972 <tibble [39 × 4]>
##  6 Asia       1977 <tibble [39 × 4]>
##  7 Asia       1982 <tibble [39 × 4]>
##  8 Asia       1987 <tibble [39 × 4]>
##  9 Asia       1992 <tibble [43 × 4]>
## 10 Asia       1997 <tibble [43 × 4]>
## # … with 276 more rows

nest() creates a list-column of data frames.

The list column, data, contains a small table of data corresponding to each continent-year group.

Grouped analysis and list columns

We can look at specific group, for example, “Europe 1977”, if we like, by filtering the data and then unnesting the list column.

out_le %>% filter(continent == "Europe" & year == 1977) %>% 
  unnest()

## # A tibble: 33 × 6
## # Groups:   continent, year [1]
##    continent  year country                lifeExp      pop gdpPercap
##    <fct>     <int> <fct>                    <dbl>    <int>     <dbl>
##  1 Europe     1977 Albania                   68.9  2509048     3533.
##  2 Europe     1977 Austria                   72.2  7568430    19749.
##  3 Europe     1977 Belgium                   72.8  9821800    19118.
##  4 Europe     1977 Bosnia and Herzegovina    69.9  4086000     3528.
##  5 Europe     1977 Bulgaria                  70.8  8797022     7612.
##  6 Europe     1977 Croatia                   70.6  4318673    11305.
##  7 Europe     1977 Cyprus                    73.7   598400     8898.
##  8 Europe     1977 Czech Republic            70.7 10161915    14800.
##  9 Europe     1977 Denmark                   74.7  5088419    20423.
## 10 Europe     1977 Finland                   72.5  4738902    15605.
## # … with 23 more rows
…
List columns are useful because we can act on them in a compact and tidy way.

fit_ols <- function(df) {
    lm(lifeExp ~ log(gdpPercap), data = df)
}

out_le <- gapminder %>%
    group_by(continent, year) %>%
    nest() %>% 
    mutate(model = map(data, fit_ols)) 

out_le

## # A tibble: 286 × 4
## # Groups:   continent, year [286]
##    continent  year data              model 
##    <fct>     <int> <list>            <list>
##  1 Asia       1952 <tibble [33 × 4]> <lm>  
##  2 Asia       1957 <tibble [33 × 4]> <lm>  
##  3 Asia       1962 <tibble [33 × 4]> <lm>  
##  4 Asia       1967 <tibble [33 × 4]> <lm>  
##  5 Asia       1972 <tibble [39 × 4]> <lm>  
##  6 Asia       1977 <tibble [39 × 4]> <lm>  
##  7 Asia       1982 <tibble [39 × 4]> <lm>  
##  8 Asia       1987 <tibble [39 × 4]> <lm>  
##  9 Asia       1992 <tibble [43 × 4]> <lm>  
## 10 Asia       1997 <tibble [43 × 4]> <lm>  
## # … with 276 more rows
…
