DANL 310 Lecture 07
…
summarize(): Summarize or aggregate the grouped data.

For example we might calculate means with mean() or counts with n().

Use pipes to summarize data

rel_by_region <- gss_sm %>%
    group_by( bigregion, religion ) %>%
    summarize( N = n() ) %>%
    mutate( freq = N / sum(N),
            pct = round((freq*100), 0) )
rel_by_region

## # A tibble: 24 × 5
## # Groups:   bigregion [4]
##    bigregion religion       N    freq   pct
##    <fct>     <fct>      <int>   <dbl> <dbl>
##  1 Northeast Protestant   158 0.324      32
##  2 Northeast Catholic     162 0.332      33
##  3 Northeast Jewish        27 0.0553      6
##  4 Northeast None         112 0.230      23
##  5 Northeast Other         28 0.0574      6
##  6 Northeast <NA>           1 0.00205     0
##  7 Midwest   Protestant   325 0.468      47
##  8 Midwest   Catholic     172 0.247      25
##  9 Midwest   Jewish         3 0.00432     0
## 10 Midwest   None         157 0.226      23
## # … with 14 more rows
…
