DANL 310 Lecture 11
…
# Work with models
<html><div style='float:left'></div><hr color='#EB811B' size=1px width=796px></html>

---
# Add Labels and Make Notes
### <p style="color:#00449E"> gapminder data </p>

- The `gapminder` package include the `gapminder` data.frame.

```r
gapminder
```

```
# # A tibble: 1,704 × 6
#    country     continent  year lifeExp      pop gdpPercap
#    <fct>       <fct>     <int>   <dbl>    <int>     <dbl>
#  1 Afghanistan Asia       1952    28.8  8425333      779.
#  2 Afghanistan Asia       1957    30.3  9240934      821.
#  3 Afghanistan Asia       1962    32.0 10267083      853.
#  4 Afghanistan Asia       1967    34.0 11537966      836.
#  5 Afghanistan Asia       1972    36.1 13079460      740.
#  6 Afghanistan Asia       1977    38.4 14880372      786.
#  7 Afghanistan Asia       1982    39.9 12881816      978.
#  8 Afghanistan Asia       1987    40.8 13867957      852.
#  9 Afghanistan Asia       1992    41.7 16317921      649.
# 10 Afghanistan Asia       1997    41.8 22227415      635.
# # … with 1,694 more rows
```
…
---
# Work with models
### <p style="color:#00449E"> Grouped analysis and list columns </p>

- With `dplyr` and `broom` we can do the grouped analysis for every continent-year slice of the data in a compact and tidy way.

```r
out_le <- gapminder %>%
    group_by(continent, year) %>%
    nest()
out_le
```

```
# # A tibble: 60 × 3
# # Groups:   continent, year [60]
#    continent  year data             
#    <fct>     <int> <list>           
#  1 Asia       1952 <tibble [33 × 4]>
#  2 Asia       1957 <tibble [33 × 4]>
#  3 Asia       1962 <tibble [33 × 4]>
#  4 Asia       1967 <tibble [33 × 4]>
#  5 Asia       1972 <tibble [33 × 4]>
#  6 Asia       1977 <tibble [33 × 4]>
#  7 Asia       1982 <tibble [33 × 4]>
#  8 Asia       1987 <tibble [33 × 4]>
#  9 Asia       1992 <tibble [33 × 4]>
# 10 Asia       1997 <tibble [33 × 4]>
# # … with 50 more rows
```
…
---
# Work with models
### <p style="color:#00449E"> Grouped analysis and list columns </p>

- We can look at specific group, for example, “Europe 1977”, if we like, by filtering the data and then unnesting the list column.

```r
out_le %>% filter(continent == "Europe" & year == 1977) %>% 
  unnest()
```

```
# # A tibble: 30 × 6
# # Groups:   continent, year [1]
#    continent  year country                lifeExp      pop gdpPercap
#    <fct>     <int> <fct>                    <dbl>    <int>     <dbl>
#  1 Europe     1977 Albania                   68.9  2509048     3533.
#  2 Europe     1977 Austria                   72.2  7568430    19749.
#  3 Europe     1977 Belgium                   72.8  9821800    19118.
#  4 Europe     1977 Bosnia and Herzegovina    69.9  4086000     3528.
#  5 Europe     1977 Bulgaria                  70.8  8797022     7612.
#  6 Europe     1977 Croatia                   70.6  4318673    11305.
#  7 Europe     1977 Czech Republic            70.7 10161915    14800.
#  8 Europe     1977 Denmark                   74.7  5088419    20423.
#  9 Europe     1977 Finland                   72.5  4738902    15605.
# 10 Europe     1977 France                    73.8 53165019    18293.
# # … with 20 more rows
```
…
```r
fit_ols <- function(df) {
    lm(lifeExp ~ log(gdpPercap), data = df)
}

out_le <- gapminder %>%
    group_by(continent, year) %>%
    nest() %>% 
    mutate(model = map(data, fit_ols)) 

out_le
```

```
# # A tibble: 60 × 4
# # Groups:   continent, year [60]
#    continent  year data              model 
#    <fct>     <int> <list>            <list>
#  1 Asia       1952 <tibble [33 × 4]> <lm>  
#  2 Asia       1957 <tibble [33 × 4]> <lm>  
#  3 Asia       1962 <tibble [33 × 4]> <lm>  
#  4 Asia       1967 <tibble [33 × 4]> <lm>  
#  5 Asia       1972 <tibble [33 × 4]> <lm>  
#  6 Asia       1977 <tibble [33 × 4]> <lm>  
#  7 Asia       1982 <tibble [33 × 4]> <lm>  
#  8 Asia       1987 <tibble [33 × 4]> <lm>  
#  9 Asia       1992 <tibble [33 × 4]> <lm>  
# 10 Asia       1997 <tibble [33 × 4]> <lm>  
# # … with 50 more rows
```
…
